{
  "welcomeFile": "index.html",
  "sendWelcomeFileRedirect": true,
  "routes": [
    {
      "path": "/resources",
      "target": {
        "type": "service",
        "name": "sapui5",
        "version":"1.30.7",
        "entryPath": "/resources"
      },
      "description": "SAPUI5 Resources"
    },
    {
      "path": "/test-resources",
      "target": {
        "type": "service",
        "name": "sapui5",
        "entryPath": "/test-resources"
      },
      "description": "SAPUI5 Test Resources"
    },
    {
	   "path": "/sf", 
	   "target": {
	       "type": "destination",
	       "name": "sap_hcmcloud_core_odata"
	       },
	   "description": "SF System"
	},
	{
		"path":"/xrate",
		"target":{
			"type":"destination",
			"name":"exchange_rate_api"
		},
		"description":"Exchange rates"
	},
	{
       "path": "/services/userapi", 
       "target": {
	       "type": "service",
	       "name": "userapi"
    	}	
	}
  ],
  "logoutPage": "/logout.html",
  "securityConstraints": [
        {
            "permission": "accessUserData",
            "description": "Access User Data",
            "protectedPaths": [
                "/"
            ],
            "excludedPaths": [
                "/logout.html"
            ]
        },
         {
	          "permission": "AccessApplicationDescriptor",
	          "description": "Access application descriptor",
	          "protectedPaths": [
	             "/neo-app.json"
	          ]
	     }
    ],
  "cacheControl": [
    {
      "directive": "private",
      "maxAge": 0,
      "path": "*html"
    },
    {
      "directive": "public",
      "maxAge": 31536000
    }
  ]
}