[{
	"scopeId": "tscope",
	"scopeName": "T-Scope - Have Not Met Performance Conditions",
	"rowId": 1,
	"typeLTI": "T13 (U.S.)",
	"unvested": "169,894.14",
	"unitValue": 1.06,
	"totalValue": null,
	"year1": null,
	"year2": null,
	"year3": null,
	"year4": null,
	"year5": null,
	"year6": null,
	"year7": null,
	"_isTotalRow": false
}, {
	"scopeId": "tscope",
	"scopeName": "T-Scope - Have Not Met Performance Conditions",
	"rowId": 2,
	"typeLTI": "T15 (U.S.)",
	"unvested": "186,373.14",
	"unitValue": 1,
	"totalValue": 186.3,
	"year1": null,
	"year2": null,
	"year3": null,
	"year4": null,
	"year5": null,
	"year6": null,
	"year7": null,
	"_isTotalRow": false
}, {
	"scopeId": "tscope",
	"scopeName": "T-Scope - Have Not Met Performance Conditions",
	"rowId": 3,
	"typeLTI": "Sub-total",
	"unvested": "356,267.28",
	"unitValue": null,
	"totalValue": 366.461,
	"year1": null,
	"year2": null,
	"year3": null,
	"year4": null,
	"year5": null,
	"year6": null,
	"year7": null,
	"_isTotalRow": true
}, {
	"scopeId": "tscope_met",
	"scopeName": "T-Scope - Have Met Performance Conditions",
	"rowId": 1,
	"typeLTI": "T06 (U.S.)",
	"unvested": "2.334",
	"unitValue": 1.2,
	"totalValue": 2.801,
	"year1": 1.400,
	"year2": 1.401,
	"year3": null,
	"year4": null,
	"year5": null,
	"year6": null,
	"year7": null,
	"_isTotalRow": false
}, {
	"scopeId": "tscope_met",
	"scopeName": "T-Scope - Have Met Performance Conditions",
	"rowId": 2,
	"typeLTI": "T07 (U.S.)",
	"unvested": "1.100",
	"unitValue": 1.15,
	"totalValue": 1.265,
	"year1": 1.265,
	"year2": null,
	"year3": null,
	"year4": null,
	"year5": null,
	"year6": null,
	"year7": null,
	"_isTotalRow": false
}, {
	"scopeId": "tscope_met",
	"scopeName": "T-Scope - Have Met Performance Conditions",
	"rowId": 3,
	"typeLTI": "T10 (U.S.)",
	"unvested": "9.400",
	"unitValue": 1.1,
	"totalValue": 10.340,
	"year1": 2.585,
	"year2": 2.585,
	"year3": 2.585,
	"year4": 2.585,
	"year5": null,
	"year6": null,
	"year7": null,
	"_isTotalRow": false
}, {
	"scopeId": "tscope_met",
	"scopeName": "T-Scope - Have Met Performance Conditions",
	"rowId": 4,
	"typeLTI": "Sub-total",
	"unvested": "12.834",
	"unitValue": null,
	"totalValue": 14.406,
	"year1": 5.250,
	"year2": 3.986,
	"year3": 2.585,
	"year4": 2.585,
	"year5": null,
	"year6": null,
	"year7": null,
	"_isTotalRow": true
}, {
	"scopeId": "sscope",
	"scopeName": "S-Scope",
	"rowId": 1,
	"typeLTI": "S10 (U.S.)",
	"unvested": "480",
	"unitValue": 1.1,
	"totalValue": 528,
	"year1": 264,
	"year2": 264,
	"year3": null,
	"year4": null,
	"year5": null,
	"year6": null,
	"year7": null,
	"_isTotalRow": false
}, {
	"scopeId": "sscope",
	"scopeName": "S-Scope",
	"rowId": 2,
	"typeLTI": "S11 (U.S.)",
	"unvested": "0",
	"unitValue": 1.08,
	"totalValue": 0,
	"year1": 0,
	"year2": 0,
	"year3": 0,
	"year4": null,
	"year5": null,
	"year6": null,
	"year7": null,
	"_isTotalRow": false
}, {
	"scopeId": "sscope",
	"scopeName": "S-Scope",
	"rowId": 3,
	"typeLTI": "S12 (U.S.)",
	"unvested": "2.640",
	"unitValue": 1.07,
	"totalValue": 2.825,
	"year1": 706,
	"year2": 706,
	"year3": 706,
	"year4": 707,
	"year5": 2.825,
	"year6": null,
	"year7": null,
	"_isTotalRow": false
}, {
	"scopeId": "sscope",
	"scopeName": "S-Scope",
	"rowId": 4,
	"typeLTI": "S13 (U.S.)",
	"unvested": "80",
	"unitValue": 1.06,
	"totalValue": 85,
	"year1": 17,
	"year2": 17,
	"year3": 17,
	"year4": 17,
	"year5": 17,
	"year6": null,
	"year7": null,
	"_isTotalRow": false
}, {
	"scopeId": "sscope",
	"scopeName": "S-Scope",
	"rowId": 5,
	"typeLTI": "S14 (U.S.)",
	"unvested": "720",
	"unitValue": 1.05,
	"totalValue": 756,
	"year1": null,
	"year2": 151,
	"year3": 151,
	"year4": 151,
	"year5": 151,
	"year6": 152,
	"year7": null,
	"_isTotalRow": false
}, {
	"scopeId": "sscope",
	"scopeName": "S-Scope",
	"rowId": 6,
	"typeLTI": "S15 (U.S.)",
	"unvested": "880",
	"unitValue": 1,
	"totalValue": 880,
	"year1": null,
	"year2": null,
	"year3": 176,
	"year4": 176,
	"year5": 176,
	"year6": 176,
	"year7": 176,
	"_isTotalRow": false
}, {
	"scopeId": "sscope",
	"scopeName": "S-Scope",
	"rowId": 7,
	"typeLTI": "Sub-total",
	"unvested": "4.800",
	"unitValue": null,
	"totalValue": 5.074,
	"year1": 987,
	"year2": 1.138,
	"year3": 1.050,
	"year4": 1.051,
	"year5": 3.169,
	"year6": 328,
	"year7": 176,
	"_isTotalRow": true
}, {
	"scopeId": "rscope",
	"scopeName": "R-Scope",
	"rowId": 1,
	"typeLTI": "R13 (U.S.)",
	"unvested": "1.300",
	"unitValue": 1.06,
	"totalValue": 1.378,
	"year1": 1.378,
	"year2": null,
	"year3": null,
	"year4": null,
	"year5": null,
	"year6": null,
	"year7": null,
	"_isTotalRow": false
}, {
	"scopeId": "rscope",
	"scopeName": "R-Scope",
	"rowId": 2,
	"typeLTI": "R15 (U.S.)",
	"unvested": "1.500",
	"unitValue": 1,
	"totalValue": 1.500,
	"year1": 500,
	"year2": 500,
	"year3": 500,
	"year4": null,
	"year5": null,
	"year6": null,
	"year7": null,
	"_isTotalRow": false
}, {
	"scopeId": "rscope",
	"scopeName": "R-Scope",
	"rowId": 3,
	"typeLTI": "Sub-total",
	"unvested": "2.800",
	"unitValue": null,
	"totalValue": 2.878,
	"year1": 1.878,
	"year2": 500,
	"year3": 500,
	"year4": null,
	"year5": null,
	"year6": null,
	"year7": null,
	"_isTotalRow": true
}, {
	"scopeId": "uscope",
	"scopeName": "U-Scope",
	"rowId": 1,
	"typeLTI": "U13 (U.S.)",
	"unvested": "1.000",
	"unitValue": 1.06,
	"totalValue": 1.060,
	"year1": 353,
	"year2": 353,
	"year3": 354,
	"year4": null,
	"year5": null,
	"year6": null,
	"year7": null,
	"_isTotalRow": false
}, {
	"scopeId": "uscope",
	"scopeName": "U-Scope",
	"rowId": 2,
	"typeLTI": "U14 (U.S.)",
	"unvested": "0",
	"unitValue": 1.05,
	"totalValue": 0,
	"year1": 0,
	"year2": 0,
	"year3": 0,
	"year4": 0,
	"year5": null,
	"year6": null,
	"year7": null,
	"_isTotalRow": false
}, {
	"scopeId": "uscope",
	"scopeName": "U-Scope",
	"rowId": 3,
	"typeLTI": "U15 (U.S.)",
	"unvested": "2.333",
	"unitValue": 1,
	"totalValue": 2.333,
	"year1": 467,
	"year2": 467,
	"year3": 467,
	"year4": 467,
	"year5": 465,
	"year6": null,
	"year7": null,
	"_isTotalRow": false
}, {
	"scopeId": "uscope",
	"scopeName": "U-Scope",
	"rowId": 4,
	"typeLTI": "Sub-total",
	"unvested": "3.333",
	"unitValue": null,
	"totalValue": 3.393,
	"year1": 820,
	"year2": 820,
	"year3": 821,
	"year4": 467,
	"year5": 465,
	"year6": null,
	"year7": null,
	"_isTotalRow": true
	"_isTotalRow": true
}]