[{
	"StatementId": "1",
	"StatementYear": "2013",
	"__metadata": {
		"uri": "Statements('1')",
		"type": "Demo.Statement"
	}
}, {
	"StatementId": "2",
	"StatementYear": "2014",
	"__metadata": {
		"uri": "Statements('2')",
		"type": "Demo.Statement"
	}
}, {
	"StatementId": "3",
	"StatementYear": "2015",
	"__metadata": {
		"uri": "Statements('3')",
		"type": "Demo.Statement"
	}
}]